// Jest Snapshot v1, https://goo.gl/fbAQLP

exports[`EmbedI18nWebpackPlugin error reporting should report an error if less that 1 parameter is provided to the translation function 1`] = `
Array [
  "[EmbedWebpackI18nPlugin]: The i18n function '__' expects 1 or 2 arguments but got 0.",
]
`;

exports[`EmbedI18nWebpackPlugin error reporting should report an error if more that 2 parameters are provided to the translation function 1`] = `
Array [
  "[EmbedWebpackI18nPlugin]: The i18n function '__' expects 1 or 2 arguments but got 3.",
]
`;

exports[`EmbedI18nWebpackPlugin error reporting should report an error if option returnArrayWithAllLangs is used but a value is an object and allowResultToNotBeString is not set 1`] = `
Array [
  "[EmbedWebpackI18nPlugin]: Expected value for key \\"sentence\\" to be a 'string' but got 'object'. If this is the expected behavior, use option 'allowResultToNotBeString'.",
]
`;

exports[`EmbedI18nWebpackPlugin error reporting should report an error if option returnArrayWithAllLangs is used but allLangDefinitions is not specified 1`] = `
Array [
  "[EmbedWebpackI18nPlugin]: Option returnArrayWithAllLangs was true but 'allLangs' was not specified in the plugin constructor.",
]
`;

exports[`EmbedI18nWebpackPlugin error reporting should report an error if the fallback value is not an object 1`] = `
Array [
  "[EmbedWebpackI18nPlugin]: The key \\"sentence\\" is an 'object' in your definition but isn't one in the fallback definition. Make sure your definitions have the same schemas.",
]
`;

exports[`EmbedI18nWebpackPlugin error reporting should report an error if the key is not a static string 1`] = `
Array [
  "[EmbedWebpackI18nPlugin]: The first argument of the translate function must be a string.",
]
`;

exports[`EmbedI18nWebpackPlugin error reporting should report an error if the options passed to the translation function is not a static object 1`] = `
Array [
  "[EmbedWebpackI18nPlugin]: The second argument of the translate function must be a static object.",
]
`;

exports[`EmbedI18nWebpackPlugin error reporting should report an error if the value is not a string 1`] = `
Array [
  "[EmbedWebpackI18nPlugin]: Expected value for key \\"word\\" to be a 'string' but got 'object'. If this is the expected behavior, use option 'allowResultToNotBeString'.",
]
`;

exports[`EmbedI18nWebpackPlugin option allowResultToNotBeString should emit a warning if the option is specified while the value is a string 1`] = `
Array [
  "[EmbedWebpackI18nPlugin]: Expected value for key \\"sentence\\" is a 'string' but the option 'allowResultToNotBeString' was specified. You don't need it.",
]
`;

exports[`EmbedI18nWebpackPlugin simple usage should fallback to the key if the key isn't found and is not in the fallback definition 1`] = `
Array [
  "[EmbedWebpackI18nPlugin]: The key \\"word\\" doesn't exist in either the provided nor fallback definitions. Using source text.",
]
`;

exports[`EmbedI18nWebpackPlugin simple usage should fallback to the key if the key isn't found and no fallback is provided 1`] = `
Array [
  "[EmbedWebpackI18nPlugin]: The key \\"word\\" doesn't exist in either the provided nor fallback definitions. Using source text.",
]
`;

exports[`EmbedI18nWebpackPlugin simple usage should fallback to the key if the key isn't found and no options are provided 1`] = `
Array [
  "[EmbedWebpackI18nPlugin]: The key \\"word\\" doesn't exist in either the provided nor fallback definitions. Using source text.",
]
`;

exports[`EmbedI18nWebpackPlugin simple usage should use the fallback definition if the key isn't found 1`] = `
Array [
  "[EmbedWebpackI18nPlugin]: The key \\"word\\" doesn't exist in the supplied lang definition. Using fallback.",
]
`;
